SessionId,UserId,CustNo,IPAddress,LogDate,ActivityType,Referrer,PageName
"e5yx2vml31qshygv0nsknucv                          ","4300      ","4300      ",184.13.141.216,2014-08-19,"PageLoad            ",http://www.horizonparts.com/store/Main.aspx?html=discount-items,Html
"e5yx2vml31qshygv0nsknucv                          ","4300      ","4300      ",184.13.141.216,2014-08-19,"PageLoad            ",http://www.horizonparts.com//store/Main.aspx,Html
"rkkonfwo1n5m5qunblvllevl                          ","7366      ","7366      ",50.29.243.227,2014-08-19,"PageLoad            ",https://www.horizonparts.com/store/Main.aspx?html=discount-items,Html
"iosfolmurts4xegwphfdazb5                          ","2123      ","2123      ",108.248.193.217,2014-08-19,"PageLoad            ",http://www.horizonparts.com/store/main.aspx,Html
"lrexovofbwlsnzbaopgmexhe                          ","12898     ","12898     ",67.136.114.234,2014-08-19,"PageLoad            ",http://www.horizonparts.com/store/main.aspx,Html
"iosfolmurts4xegwphfdazb5                          ","2123      ","2123      ",108.248.193.217,2014-08-19,"PageLoad            ",http://www.horizonparts.com/store/Main.aspx?html=discount-items,Html
"iosfolmurts4xegwphfdazb5                          ","2123      ","2123      ",108.248.193.217,2014-08-19,"PageLoad            ",http://www.horizonparts.com/store/main.aspx?html=partsology,SearchBody
"iosfolmurts4xegwphfdazb5                          ","2123      ","2123      ",108.248.193.217,2014-08-19,"PageLoad            ",http://www.horizonparts.com/store/Main.aspx,Html
"zz4gnjcuqgqgmnjtmcyuowpu                          ","903034    ","903034    ",217.209.147.51,2014-08-19,"PageLoad            ",https://www.horizonparts.com/store/Main.aspx?html=discount-items,Html
"f1klegucohved5yabdtx0k2e                          ","10983     ","10983     ",75.151.98.14,2014-08-19,"PageLoad            ",https://www.horizonparts.com/store/Main.aspx?html=discount-items,Html
"f1klegucohved5yabdtx0k2e                          ","10983     ","10983     ",75.151.98.14,2014-08-19,"PageLoad            ",http://www.horizonparts.com/store/main.aspx,Html
"                                                  ","          ","          ",173.11.12.165,2014-08-19,"Info                ",,Home
"                                                  ","          ","          ",173.11.12.165,2014-08-19,"Info                ",,Home
"syjlt0yh2ok0syij2rb0uxaw                          ","          ","          ",173.11.12.165,2014-08-19,"Info                ",http://horizonparts.com/partsology/,Home
"syjlt0yh2ok0syij2rb0uxaw                          ","          ","          ",173.11.12.165,2014-08-19,"PageLoad            ",http://horizonparts.com/partsology/,Home
"syjlt0yh2ok0syij2rb0uxaw                          ","          ","          ",173.11.12.165,2014-08-19,"PageLoad            ",http://horizonparts.com/store/Main.aspx?html=partsology,Home
"syjlt0yh2ok0syij2rb0uxaw                          ","C11790    ","C11790    ",173.11.12.165,2014-08-19,"PageLoad            ",,Html
"fetw5aolvlppf12ylg5a2spq                          ","4669      ","4669      ",71.86.224.18,2014-08-19,"PageLoad            ",http://www.horizonparts.com/store/main.aspx,Html
"fetw5aolvlppf12ylg5a2spq                          ","4669      ","4669      ",71.86.224.18,2014-08-19,"PageLoad            ",http://www.horizonparts.com/store/Main.aspx?html=discount-items,Html
"faphiuz4w00nap4xtyvxjg3w                          ","          ","          ",184.255.159.232,2014-08-19,"Info                ",,Home
"faphiuz4w00nap4xtyvxjg3w                          ","          ","          ",184.255.159.232,2014-08-19,"PageLoad            ",,Home
"faphiuz4w00nap4xtyvxjg3w                          ","          ","          ",184.255.159.232,2014-08-19,"NEWSESSION          ",,
"kwf3v5unvj34oedo2ezo1bom                          ","8014      ","8014      ",76.7.98.148,2014-08-19,"PageLoad            ",http://www.horizonparts.com/store/main.aspx,Html
"4koxewjdsv31wzrrg2d0rr53                          ","          ","          ",200.6.219.81,2014-08-19,"PageLoad            ",http://www.horizonparts.com/partsology/,Home
"gt3nu3wywrobtcage2dvk0vq                          ","9907      ","9907      ",184.99.209.240,2014-08-19,"PageLoad            ",http://www.horizonparts.com/store/Main.aspx?html=discount-items,Html
"e5pomhwe10rlctxhugxianip                          ","4300      ","4300      ",184.13.141.216,2014-08-19,"PageLoad            ",http://www.horizonparts.com/store/main.aspx,Html
"zfub253xlszprwa2bkczrfdu                          ","          ","          ",157.55.39.38,2014-08-19,"Info                ",,Home
"zfub253xlszprwa2bkczrfdu                          ","          ","          ",157.55.39.38,2014-08-19,"PageLoad            ",,Home
"ds3jb2qxry5a3y5a4w1d51hk                          ","7143      ","7143      ",24.220.122.135,2014-08-19,"PageLoad            ",http://www.horizonparts.com/store/Main.aspx?html=discount-items,Html
